{
	"name" : "click_animation",
	"version" : "1.0.2",
	"description" : "This module enables to change img sources when they're clicked.",
	"author" : {
		"name" : "Jonathan Hattab",
		"email" : "jonathanhattab@madjoh.com"
	},
	"dependencies" : {
		"controls" : "1.1"
	},
	"devDependencies" : {}
}